1059		
0	1.9680E-02	198.563
25	1.9631E-02	198.528
50	1.9581E-02	198.493
75	1.9532E-02	198.458
100	1.9483E-02	198.423
125	1.9434E-02	198.388
150	1.9385E-02	198.353
175	1.9336E-02	198.318
200	1.9287E-02	198.283
225	1.9238E-02	198.248
250	1.9190E-02	198.213
275	1.9141E-02	198.178
300	1.9093E-02	198.144
325	1.9045E-02	198.109
350	1.8997E-02	198.074
375	1.8949E-02	198.039
400	1.8901E-02	198.004
425	1.8854E-02	197.969
450	1.8806E-02	197.934
475	1.8759E-02	197.899
500	1.8712E-02	197.864
525	1.8664E-02	197.829
550	1.8617E-02	197.794
575	1.8570E-02	197.759
600	1.8524E-02	197.724
625	1.8477E-02	197.690
650	1.8430E-02	197.655
675	1.8384E-02	197.620
700	1.8337E-02	197.585
725	1.8291E-02	197.550
750	1.8245E-02	197.515
775	1.8199E-02	197.480
800	1.8153E-02	197.445
825	1.8108E-02	197.410
850	1.8062E-02	197.375
875	1.8016E-02	197.340
900	1.7971E-02	197.305
925	1.7926E-02	197.270
950	1.7880E-02	197.236
975	1.7835E-02	197.201
1000	1.7790E-02	197.166
1025	1.7746E-02	197.131
1050	1.7701E-02	197.096
1075	1.7656E-02	197.061
1100	1.7612E-02	197.026
1125	1.7567E-02	196.991
1150	1.7523E-02	196.956
1175	1.7479E-02	196.921
1200	1.7435E-02	196.886
1225	1.7391E-02	196.851
1250	1.7347E-02	196.817
1275	1.7303E-02	196.782
1300	1.7260E-02	196.747
1325	1.7216E-02	196.712
1350	1.7173E-02	196.677
1375	1.7129E-02	196.642
1400	1.7086E-02	196.607
1425	1.7043E-02	196.572
1450	1.7000E-02	196.537
1475	1.6957E-02	196.502
1500	1.6915E-02	196.467
1525	1.6872E-02	196.432
1550	1.6829E-02	196.397
1575	1.6787E-02	196.363
1600	1.6745E-02	196.328
1625	1.6702E-02	196.293
1650	1.6660E-02	196.258
1675	1.6618E-02	196.223
1700	1.6576E-02	196.188
1725	1.6535E-02	196.153
1750	1.6493E-02	196.118
1775	1.6451E-02	196.083
1800	1.6410E-02	196.048
1825	1.6369E-02	196.013
1850	1.6327E-02	195.978
1875	1.6286E-02	195.943
1900	1.6245E-02	195.909
1925	1.6204E-02	195.874
1950	1.6163E-02	195.839
1975	1.6123E-02	195.804
2000	1.6082E-02	195.769
2025	1.6041E-02	195.734
2050	1.6001E-02	195.699
2075	1.5961E-02	195.664
2100	1.5920E-02	195.629
2125	1.5880E-02	195.594
2150	1.5840E-02	195.559
2175	1.5800E-02	195.524
2200	1.5760E-02	195.489
2225	1.5721E-02	195.455
2250	1.5681E-02	195.420
2275	1.5642E-02	195.385
2300	1.5602E-02	195.350
2325	1.5563E-02	195.315
2350	1.5524E-02	195.280
2375	1.5484E-02	195.245
2400	1.5445E-02	195.210
2425	1.5406E-02	195.175
2450	1.5368E-02	195.140
2475	1.5329E-02	195.105
2500	1.5290E-02	195.070
2525	1.5252E-02	195.035
2550	1.5213E-02	195.001
2575	1.5175E-02	194.966
2600	1.5137E-02	194.931
2625	1.5098E-02	194.896
2650	1.5060E-02	194.861
2675	1.5022E-02	194.826
2700	1.4985E-02	194.791
2725	1.4947E-02	194.756
2750	1.4909E-02	194.721
2775	1.4872E-02	194.686
2800	1.4834E-02	194.651
2825	1.4797E-02	194.616
2850	1.4759E-02	194.581
2875	1.4722E-02	194.547
2900	1.4685E-02	194.512
2925	1.4648E-02	194.477
2950	1.4611E-02	194.442
2975	1.4574E-02	194.407
3000	1.4538E-02	194.372
3025	1.4501E-02	194.337
3050	1.4464E-02	194.302
3075	1.4428E-02	194.267
3100	1.4391E-02	194.232
3125	1.4355E-02	194.197
3150	1.4319E-02	194.162
3175	1.4283E-02	194.128
3200	1.4247E-02	194.093
3225	1.4211E-02	194.058
3250	1.4175E-02	194.023
3275	1.4139E-02	193.988
3300	1.4104E-02	193.953
3325	1.4068E-02	193.918
3350	1.4033E-02	193.883
3375	1.3997E-02	193.848
3400	1.3962E-02	193.813
3425	1.3927E-02	193.778
3450	1.3892E-02	193.743
3475	1.3857E-02	193.708
3500	1.3822E-02	193.674
3525	1.3787E-02	193.639
3550	1.3752E-02	193.604
3575	1.3718E-02	193.569
3600	1.3683E-02	193.534
3625	1.3649E-02	193.499
3650	1.3614E-02	193.464
3675	1.3580E-02	193.429
3700	1.3546E-02	193.394
3725	1.3511E-02	193.359
3750	1.3477E-02	193.324
3775	1.3443E-02	193.289
3800	1.3410E-02	193.254
3825	1.3376E-02	193.220
3850	1.3342E-02	193.185
3875	1.3308E-02	193.150
3900	1.3275E-02	193.115
3925	1.3241E-02	193.080
3950	1.3208E-02	193.045
3975	1.3175E-02	193.010
4000	1.3141E-02	192.975
4025	1.3108E-02	192.940
4050	1.3075E-02	192.905
4075	1.3042E-02	192.870
4100	1.3009E-02	192.835
4125	1.2977E-02	192.800
4150	1.2944E-02	192.766
4175	1.2911E-02	192.731
4200	1.2879E-02	192.696
4225	1.2846E-02	192.661
4250	1.2814E-02	192.626
4275	1.2782E-02	192.591
4300	1.2749E-02	192.556
4325	1.2717E-02	192.521
4350	1.2685E-02	192.486
4375	1.2653E-02	192.451
4400	1.2621E-02	192.416
4425	1.2589E-02	192.381
4450	1.2558E-02	192.346
4475	1.2526E-02	192.312
4500	1.2495E-02	192.277
4525	1.2463E-02	192.242
4550	1.2432E-02	192.207
4575	1.2400E-02	192.172
4600	1.2369E-02	192.137
4625	1.2338E-02	192.102
4650	1.2307E-02	192.067
4675	1.2276E-02	192.032
4700	1.2245E-02	191.997
4725	1.2214E-02	191.962
4750	1.2183E-02	191.927
4775	1.2152E-02	191.892
4800	1.2122E-02	191.858
4825	1.2091E-02	191.823
4850	1.2061E-02	191.788
4875	1.2030E-02	191.753
4900	1.2000E-02	191.718
4925	1.1970E-02	191.683
4950	1.1940E-02	191.648
4975	1.1909E-02	191.613
5000	1.1879E-02	191.578
5025	1.1849E-02	191.543
5050	1.1820E-02	191.508
5075	1.1790E-02	191.473
5100	1.1760E-02	191.439
5125	1.1730E-02	191.404
5150	1.1701E-02	191.369
5175	1.1671E-02	191.334
5200	1.1642E-02	191.299
5225	1.1613E-02	191.264
5250	1.1583E-02	191.229
5275	1.1554E-02	191.194
5300	1.1525E-02	191.159
5325	1.1496E-02	191.124
5350	1.1467E-02	191.089
5375	1.1438E-02	191.054
5400	1.1409E-02	191.019
5425	1.1380E-02	190.985
5450	1.1352E-02	190.950
5475	1.1323E-02	190.915
5500	1.1295E-02	190.880
5525	1.1266E-02	190.845
5550	1.1238E-02	190.810
5575	1.1209E-02	190.775
5600	1.1181E-02	190.740
5625	1.1153E-02	190.705
5650	1.1125E-02	190.670
5675	1.1097E-02	190.635
5700	1.1069E-02	190.600
5725	1.1041E-02	190.565
5750	1.1013E-02	190.531
5775	1.0985E-02	190.496
5800	1.0958E-02	190.461
5825	1.0930E-02	190.426
5850	1.0902E-02	190.391
5875	1.0875E-02	190.356
5900	1.0848E-02	190.321
5925	1.0820E-02	190.286
5950	1.0793E-02	190.251
5975	1.0766E-02	190.216
6000	1.0739E-02	190.181
6025	1.0712E-02	190.146
6050	1.0685E-02	190.111
6075	1.0658E-02	190.077
6100	1.0631E-02	190.042
6125	1.0604E-02	190.007
6150	1.0577E-02	189.972
6175	1.0551E-02	189.937
6200	1.0524E-02	189.902
6225	1.0497E-02	189.867
6250	1.0471E-02	189.832
6275	1.0445E-02	189.797
6300	1.0418E-02	189.762
6325	1.0392E-02	189.727
6350	1.0366E-02	189.692
6375	1.0340E-02	189.657
6400	1.0314E-02	189.623
6425	1.0288E-02	189.588
6450	1.0262E-02	189.553
6475	1.0236E-02	189.518
6500	1.0210E-02	189.483
6525	1.0184E-02	189.448
6550	1.0159E-02	189.413
6575	1.0133E-02	189.378
6600	1.0107E-02	189.343
6625	1.0082E-02	189.308
6650	1.0057E-02	189.273
6675	1.0031E-02	189.238
6700	1.0006E-02	189.203
6725	9.9807E-03	189.169
6750	9.9555E-03	189.134
6775	9.9304E-03	189.099
6800	9.9054E-03	189.064
6825	9.8804E-03	189.029
6850	9.8555E-03	188.994
6875	9.8307E-03	188.959
6900	9.8059E-03	188.924
6925	9.7812E-03	188.889
6950	9.7565E-03	188.854
6975	9.7319E-03	188.819
7000	9.7074E-03	188.784
7025	9.6829E-03	188.750
7050	9.6585E-03	188.715
7075	9.6341E-03	188.680
7100	9.6099E-03	188.645
7125	9.5856E-03	188.610
7150	9.5615E-03	188.575
7175	9.5374E-03	188.540
7200	9.5133E-03	188.505
7225	9.4893E-03	188.470
7250	9.4654E-03	188.435
7275	9.4416E-03	188.400
7300	9.4178E-03	188.365
7325	9.3940E-03	188.330
7350	9.3703E-03	188.296
7375	9.3467E-03	188.261
7400	9.3231E-03	188.226
7425	9.2996E-03	188.191
7450	9.2762E-03	188.156
7475	9.2528E-03	188.121
7500	9.2295E-03	188.086
7525	9.2062E-03	188.051
7550	9.1830E-03	188.016
7575	9.1599E-03	187.981
7600	9.1368E-03	187.946
7625	9.1137E-03	187.911
7650	9.0908E-03	187.876
7675	9.0679E-03	187.842
7700	9.0450E-03	187.807
7725	9.0222E-03	187.772
7750	8.9994E-03	187.737
7775	8.9768E-03	187.702
7800	8.9541E-03	187.667
7825	8.9316E-03	187.632
7850	8.9090E-03	187.597
7875	8.8866E-03	187.562
7900	8.8642E-03	187.527
7925	8.8418E-03	187.492
7950	8.8196E-03	187.457
7975	8.7973E-03	187.422
8000	8.7751E-03	187.388
8025	8.7530E-03	187.353
8050	8.7310E-03	187.318
8075	8.7089E-03	187.283
8100	8.6870E-03	187.248
8125	8.6651E-03	187.213
8150	8.6432E-03	187.178
8175	8.6215E-03	187.143
8200	8.5997E-03	187.108
8225	8.5780E-03	187.073
8250	8.5564E-03	187.038
8275	8.5349E-03	187.003
8300	8.5133E-03	186.968
8325	8.4919E-03	186.934
8350	8.4705E-03	186.899
8375	8.4491E-03	186.864
8400	8.4278E-03	186.829
8425	8.4066E-03	186.794
8450	8.3854E-03	186.759
8475	8.3642E-03	186.724
8500	8.3432E-03	186.689
8525	8.3221E-03	186.654
8550	8.3011E-03	186.619
8575	8.2802E-03	186.584
8600	8.2593E-03	186.549
8625	8.2385E-03	186.514
8650	8.2178E-03	186.480
8675	8.1970E-03	186.445
8700	8.1764E-03	186.410
8725	8.1558E-03	186.375
8750	8.1352E-03	186.340
8775	8.1147E-03	186.305
8800	8.0942E-03	186.270
8825	8.0738E-03	186.235
8850	8.0535E-03	186.200
8875	8.0332E-03	186.165
8900	8.0129E-03	186.130
8925	7.9927E-03	186.095
8959	8.0848E-03	187.585
8975	8.0581E-03	187.903
9016	8.0369E-03	187.587
9058	8.0449E-03	186.591
9100	8.0331E-03	186.055
9142	8.0050E-03	185.896
9184	8.0317E-03	184.468
9226	8.0050E-03	184.271
9268	7.9887E-03	183.836
9309	7.9422E-03	184.1
9351	7.8639E-03	185.119
9393	7.8501E-03	184.633
9435	7.8246E-03	184.422
9477	7.7430E-03	185.551
9519	7.7582E-03	184.378
9561	7.7343E-03	184.134
9603	7.6926E-03	184.319
9645	7.6713E-03	184.02
9686	7.6259E-03	184.3
9728	7.6072E-03	183.943
9770	7.5679E-03	184.084
9812	7.4902E-03	185.177
9854	7.4707E-03	184.847
9896	7.5286E-03	182.617
9938	7.4034E-03	184.887
9980	7.3704E-03	184.899
10022	7.3258E-03	185.212
10064	7.3298E-03	184.299
10106	7.2644E-03	185.142
10148	7.2706E-03	184.169
10190	7.2408E-03	184.114
10232	7.1733E-03	185.028
10274	7.1383E-03	185.121
10316	7.1336E-03	184.43
10358	7.1017E-03	184.444
10400	7.0693E-03	184.472
10442	7.0309E-03	184.664
10484	7.0360E-03	183.718
10526	6.9693E-03	184.656
10568	6.8898E-03	185.969
10611	6.8537E-03	186.132
10653	6.8149E-03	186.375
10695	6.7867E-03	186.332
10737	6.7810E-03	185.674
10779	6.7057E-03	186.938
10821	6.7069E-03	186.09
10863	6.5999E-03	188.285
10906	6.5957E-03	187.588
10948	6.5712E-03	187.47
10990	6.5222E-03	188.058
11032	6.4888E-03	188.208
11074	6.5215E-03	186.45
11117	6.4471E-03	187.781
11159	6.4157E-03	187.88
11201	6.4094E-03	187.247
11243	6.3684E-03	187.634
11286	6.3613E-03	187.025
11328	6.3482E-03	186.592
11370	6.3185E-03	186.648
11413	6.2863E-03	186.785
11455	6.2363E-03	187.461
11497	6.2270E-03	186.92
11540	6.1852E-03	187.361
11582	6.1434E-03	187.814
11624	6.1368E-03	187.195
11667	6.0702E-03	188.426
11709	6.0528E-03	188.147
11752	6.0190E-03	188.38
11794	5.9966E-03	188.261
11837	5.9583E-03	188.646
11879	5.9392E-03	188.43
11922	5.9064E-03	188.653
11964	5.8883E-03	188.41
12007	5.8402E-03	189.135
12049	5.8284E-03	188.696
12092	5.8104E-03	188.455
12134	5.7760E-03	188.751
12177	5.7631E-03	188.348
12220	5.7654E-03	187.449
12262	5.7197E-03	188.12
12305	5.6798E-03	188.613
12348	5.6651E-03	188.276
12391	5.6488E-03	187.99
12433	5.6250E-03	187.958
12476	5.6023E-03	187.892
12519	5.5595E-03	188.507
12562	5.5185E-03	189.077
12605	5.4775E-03	189.66
12648	5.4758E-03	188.891
12690	5.4518E-03	188.892
12733	5.4298E-03	188.824
12776	5.4030E-03	188.929
12819	5.3838E-03	188.772
12862	5.3627E-03	188.679
12905	5.3224E-03	189.273
12949	5.2796E-03	189.973
12992	5.2602E-03	189.837
13035	5.1946E-03	191.397
13078	5.1745E-03	191.306
13121	5.1690E-03	190.673
13164	5.1475E-03	190.633
13208	5.1010E-03	191.529
13251	5.0965E-03	190.861
13294	5.0513E-03	191.731
13338	5.0429E-03	191.21
13381	5.0045E-03	191.836
13425	4.9577E-03	192.803
13468	4.9508E-03	192.234
13512	4.9307E-03	192.175
13555	4.9003E-03	192.523
13599	4.8713E-03	192.827
13642	4.8652E-03	192.223
13686	4.8264E-03	192.925
13730	4.7980E-03	193.217
13773	4.7753E-03	193.291
13817	4.7452E-03	193.669
13861	4.7355E-03	193.217
13905	4.7049E-03	193.627
13949	4.6621E-03	194.553
13993	4.6384E-03	194.698
14037	4.6240E-03	194.452
14081	4.5827E-03	195.353
14125	4.5546E-03	195.702
14169	4.5558E-03	194.799
14213	4.5261E-03	195.223
14257	4.5139E-03	194.898
14301	4.4870E-03	195.209
14346	4.4819E-03	194.577
14390	4.4566E-03	194.823
14434	4.4144E-03	195.825
14479	4.3715E-03	196.887
14523	4.3565E-03	196.705
14568	4.3531E-03	195.999
14612	4.3248E-03	196.419
14657	4.2809E-03	197.568
14702	4.2655E-03	197.418
14746	4.2620E-03	196.714
14791	4.2307E-03	197.303
14836	4.2017E-03	197.796
14881	4.1908E-03	197.443
14926	4.1762E-03	197.264
14971	4.1696E-03	196.709
15016	4.1293E-03	197.754
15061	4.1075E-03	197.93
15106	4.0914E-03	197.836
15151	4.0604E-03	198.47
15196	4.0514E-03	198.038
15242	4.0603E-03	196.73
15287	4.0527E-03	196.225
15333	4.0314E-03	196.381
15378	4.0084E-03	196.627
15424	3.9882E-03	196.738
15470	3.9474E-03	197.886
15515	3.9273E-03	198.016
15561	3.9209E-03	197.451
15607	3.8978E-03	197.737
15653	3.8766E-03	197.93
15699	3.8552E-03	198.139
15745	3.8403E-03	198.017
15791	3.8142E-03	198.474
15838	3.7928E-03	198.7
15884	3.7929E-03	197.804
15930	3.7756E-03	197.811
15977	3.7475E-03	198.393
16023	3.7314E-03	198.349
16070	3.7157E-03	198.287
16117	3.7082E-03	197.784
16164	3.6846E-03	198.146
16211	3.6657E-03	198.26
16258	3.6571E-03	197.817
16305	3.6392E-03	197.883
16352	3.6295E-03	197.498
16399	3.6188E-03	197.172
16446	3.5948E-03	197.571
16494	3.5669E-03	198.197
16542	3.5624E-03	197.527
16589	3.5508E-03	197.252
16637	3.5336E-03	197.293
16685	3.5175E-03	197.268
16733	3.4992E-03	197.372
16781	3.4787E-03	197.608
16829	3.4705E-03	197.144
16878	3.4627E-03	196.656
16926	3.4494E-03	196.474
16974	3.4277E-03	196.785
17023	3.4110E-03	196.805
17072	3.3974E-03	196.649
17121	3.3812E-03	196.651
17170	3.3750E-03	196.063
17219	3.3612E-03	195.923
17268	3.3438E-03	195.988
17318	3.3245E-03	196.175
17367	3.3081E-03	196.19
17417	3.3015E-03	195.62
17467	3.2835E-03	195.732
17516	3.2698E-03	195.587
17567	3.2579E-03	195.34
17617	3.2446E-03	195.167
17667	3.2286E-03	195.162
17718	3.2148E-03	195.03
17768	3.2021E-03	194.823
17819	3.1841E-03	194.945
17870	3.1809E-03	194.155
17921	3.1605E-03	194.426
17972	3.1479E-03	194.215
18024	3.1332E-03	194.133
18075	3.1217E-03	193.851
18127	3.1028E-03	194.031
18179	3.1038E-03	192.973
18231	3.0918E-03	192.712
18283	3.0774E-03	192.611
18336	3.0684E-03	192.159
18388	3.0457E-03	192.578
18441	3.0328E-03	192.38
18494	3.0258E-03	191.805
18547	3.0116E-03	191.68
18600	2.9986E-03	191.484
18654	2.9746E-03	191.991
18708	2.9587E-03	191.985
18762	2.9367E-03	192.384
18816	2.9319E-03	191.654
18870	2.9080E-03	192.182
18925	2.8991E-03	191.718
18979	2.8834E-03	191.704
19034	2.8614E-03	192.114
19090	2.8439E-03	192.233
19145	2.8383E-03	191.545
19201	2.8151E-03	192.051
19256	2.8062E-03	191.585
19313	2.7833E-03	192.072
19369	2.7657E-03	192.209
19425	2.7596E-03	191.545
19482	2.7442E-03	191.528
19539	2.7148E-03	192.494
19596	2.7100E-03	191.736
19654	2.6892E-03	192.104
19712	2.6720E-03	192.231
19770	2.6705E-03	191.221
19828	2.6458E-03	191.882
19886	2.6372E-03	191.375
19945	2.6211E-03	191.418
20004	2.6036E-03	191.562
20064	2.5980E-03	190.836
20123	2.5904E-03	190.245
20183	2.5708E-03	190.54
20243	2.5606E-03	190.136
20304	2.5414E-03	190.405
20365	2.5251E-03	190.465
20426	2.5248E-03	189.308
20487	2.5010E-03	189.929
20549	2.4937E-03	189.295
20611	2.4736E-03	189.638
20673	2.4570E-03	189.712
20736	2.4541E-03	188.731
20799	2.4324E-03	189.199
20862	2.4186E-03	189.058
20926	2.4065E-03	188.779
20990	2.3849E-03	189.254
21054	2.3779E-03	188.575
21119	2.3672E-03	188.176
21184	2.3459E-03	188.635
21249	2.3336E-03	188.367
21315	2.3146E-03	188.637
21381	2.3026E-03	188.349
21448	2.2905E-03	188.055
21515	2.2771E-03	187.878
21582	2.2682E-03	187.316
21650	2.2438E-03	188.042
21718	2.2326E-03	187.671
21787	2.2202E-03	187.397
21856	2.2063E-03	187.247
21925	2.1927E-03	187.068
21995	2.1756E-03	187.196
22065	2.1668E-03	186.602
22136	2.1558E-03	186.191
22207	2.1399E-03	186.196
22279	2.1287E-03	185.8
22351	2.1107E-03	185.993
22424	2.0956E-03	185.93
22497	2.0826E-03	185.685
22570	2.0645E-03	185.893
22645	2.0490E-03	185.863
22719	2.0263E-03	186.51
22794	2.0174E-03	185.881
22870	2.0005E-03	185.996
22946	1.9843E-03	186.046
23023	1.9689E-03	186.019
23100	1.9470E-03	186.62
23178	1.9413E-03	185.67
23256	1.9236E-03	185.871
23335	1.9082E-03	185.844
23415	1.8929E-03	185.816
23495	1.8754E-03	186.001
23576	1.8668E-03	185.304
23657	1.8458E-03	185.844
23739	1.8316E-03	185.707
23821	1.8115E-03	186.176
23905	1.7968E-03	186.098
23988	1.7885E-03	185.346
24073	1.7703E-03	185.628
24158	1.7630E-03	184.757
24244	1.7472E-03	184.769
24330	1.7366E-03	184.237
24417	1.7227E-03	184.046
24505	1.7067E-03	184.082
24594	1.6934E-03	183.815
24683	1.6773E-03	183.858
24773	1.6677E-03	183.183
24864	1.6515E-03	183.232
24955	1.6387E-03	182.912
25047	1.6226E-03	182.945
25140	1.6055E-03	183.102
25234	1.5947E-03	182.531
25329	1.5775E-03	182.704
25424	1.5604E-03	182.86
25520	1.5418E-03	183.217
25617	1.5199E-03	183.981
25715	1.4982E-03	184.761
25814	1.4760E-03	185.625
25913	1.4640E-03	185.239
26014	1.4488E-03	185.248
26115	1.4317E-03	185.507
26217	1.4120E-03	186.117
26320	1.3956E-03	186.317
26424	1.3826E-03	186.069
26529	1.3697E-03	185.809
26634	1.3564E-03	185.597
26741	1.3452E-03	185.086
26848	1.3327E-03	184.758
26957	1.3203E-03	184.407
27066	1.3065E-03	184.238
27177	1.2937E-03	183.934
27288	1.2809E-03	183.628
27401	1.2658E-03	183.652
27514	1.2504E-03	183.733
27629	1.2365E-03	183.583
27744	1.2246E-03	183.145
27861	1.2139E-03	182.528
27978	1.2012E-03	182.189
28097	1.1892E-03	181.734
28217	1.1732E-03	181.905
28338	1.1580E-03	181.96
28460	1.1408E-03	182.359
28583	1.1240E-03	182.715
28707	1.1084E-03	182.887
28833	1.0942E-03	182.84
28959	1.0794E-03	182.918
29087	1.0653E-03	182.865
29216	1.0524E-03	182.629
29346	1.0397E-03	182.359
29477	1.0247E-03	182.5
29610	1.0110E-03	182.419
29743	9.9805E-04	182.215
29878	9.8484E-04	182.062
30014	9.7265E-04	181.725
30151	9.6114E-04	181.261
30290	9.4887E-04	180.936
30430	9.3494E-04	180.937
30571	9.2245E-04	180.672
30713	9.0909E-04	180.583
30857	8.9714E-04	180.224
31002	8.8461E-04	179.986
31148	8.7371E-04	179.417
31296	8.6181E-04	179.052
31445	8.5090E-04	178.483
31595	8.3942E-04	178.032
31747	8.2797E-04	177.576
31900	8.1744E-04	176.921
32055	8.0718E-04	176.202
32210	7.9565E-04	175.757
32368	7.8511E-04	175.095
32526	7.7481E-04	174.371
32686	7.6286E-04	174.023
32848	7.5182E-04	173.472
33011	7.4033E-04	173.031
33175	7.2849E-04	172.68
33341	7.1658E-04	172.36
33508	7.0395E-04	172.232
33677	6.9140E-04	172.108
33847	6.7919E-04	171.924
34019	6.6649E-04	171.893
34192	6.5403E-04	171.835
34366	6.4158E-04	171.806
34543	6.2901E-04	171.845
34720	6.1627E-04	171.975
34899	6.0415E-04	171.976
35080	5.9120E-04	172.265
35262	5.7975E-04	172.159
35445	5.6827E-04	172.105
35630	5.5700E-04	172.025
35817	5.4691E-04	171.61
36005	5.3613E-04	171.443
36194	5.2395E-04	171.777
36385	5.1194E-04	172.126
36578	5.0179E-04	171.905
36771	4.9069E-04	172.057
36967	4.7906E-04	172.467
37164	4.6831E-04	172.637
37362	4.5890E-04	172.361
37562	4.4772E-04	172.816
37763	4.3546E-04	173.798
37965	4.2509E-04	174.133
38169	4.1413E-04	174.805
38375	4.0391E-04	175.265
38582	3.9513E-04	175.182
38790	3.8661E-04	175.036
39000	3.7810E-04	174.938
39211	3.7113E-04	174.17
39424	3.6357E-04	173.706
39638	3.5710E-04	172.746
39853	3.4959E-04	172.318
40070	3.4200E-04	171.977
40288	3.3501E-04	171.379
40507	3.2750E-04	171.086
40728	3.1873E-04	171.538
40950	3.1085E-04	171.608
41174	3.0564E-04	170.252
41399	2.9862E-04	169.926
41625	2.9084E-04	170.116
41853	2.8435E-04	169.623
42082	2.7780E-04	169.223
42312	2.7022E-04	169.54
42544	2.6236E-04	170.154
42777	2.5602E-04	169.889
43011	2.5123E-04	168.64
43247	2.4530E-04	168.188
43484	2.3868E-04	168.299
43722	2.3348E-04	167.477
43961	2.2852E-04	166.519
44202	2.2325E-04	165.835
44444	2.1769E-04	165.416
44687	2.1137E-04	165.681
44932	2.0650E-04	164.897
45178	2.0190E-04	163.947
45425	1.9599E-04	164.141
45673	1.9024E-04	164.323
45922	1.8519E-04	164.014
46173	1.8060E-04	163.371
46425	1.7644E-04	162.4
46678	1.7170E-04	162.029
46932	1.6649E-04	162.204
47187	1.6124E-04	162.572
47444	1.5663E-04	162.43
47702	1.5214E-04	162.274
47961	1.4745E-04	162.457
48221	1.4333E-04	162.135
48482	1.3929E-04	161.828
48744	1.3514E-04	161.761
49007	1.3119E-04	161.573
49272	1.2782E-04	160.759
49538	1.2381E-04	160.875
49804	1.1888E-04	162.4
50072	1.1426E-04	163.805
50341	1.1103E-04	163.409
50611	1.0764E-04	163.37
50881	1.0417E-04	163.612
51153	1.0194E-04	162.003
51426	9.9460E-05	160.814
51700	9.6790E-05	160.009
51975	9.4210E-05	159.135
52252	9.1800E-05	158.01
52529	8.9070E-05	157.567
52807	8.6480E-05	156.958
53086	8.4370E-05	155.55
53366	8.2260E-05	154.198
53647	8.0300E-05	152.528
53929	7.7900E-05	151.882
54212	7.5470E-05	151.358
54496	7.3070E-05	150.887
54781	7.0720E-05	150.438
55067	6.8580E-05	149.662
55353	6.6340E-05	149.208
55641	6.4460E-05	148.074
55930	6.2610E-05	146.926
56220	6.0730E-05	145.931
56510	5.8900E-05	144.835
56802	5.7080E-05	143.955
57094	5.5470E-05	142.533
57387	5.3890E-05	141.129
57682	5.2350E-05	139.667
57977	5.0800E-05	138.251
58273	4.9240E-05	136.997
58570	4.7820E-05	135.396
58868	4.6160E-05	134.566
59166	4.4770E-05	133.039
59466	4.3230E-05	132.066
59767	4.1710E-05	131.104
60068	4.0300E-05	129.941
60370	3.8900E-05	128.803
60673	3.7530E-05	127.728
60977	3.6010E-05	127.305
61282	3.4500E-05	127.065
61588	3.3400E-05	125.533
61894	3.2040E-05	124.848
62201	3.0760E-05	124.135
62509	2.9620E-05	123.02
62818	2.8510E-05	121.896
63128	2.7520E-05	120.385
63439	2.6400E-05	119.518
63750	2.5520E-05	117.735
64062	2.4530E-05	116.509
64376	2.3650E-05	114.843
64689	2.2800E-05	113.148
65004	2.1840E-05	112.079
65320	2.0870E-05	111.247
65636	1.9830E-05	111.017
65953	1.8670E-05	111.779
66271	1.7400E-05	113.975
66589	1.6000E-05	117.743
66909	1.4670E-05	121.925
67229	1.3740E-05	124.028
67550	1.2940E-05	125.477
67871	1.2170E-05	127.188
68194	1.1580E-05	127.451
68517	1.0910E-05	129.036
68841	1.0400E-05	129.269
69166	9.9500E-06	128.879
69491	9.5000E-06	128.682
69817	9.1400E-06	127.641
70144	8.7600E-06	126.831
70472	8.4000E-06	126.111
70801	8.0400E-06	125.494
71130	7.7000E-06	124.64
71460	7.4100E-06	123.24
71790	7.1300E-06	121.877
72122	6.8400E-06	120.694
72454	6.5600E-06	119.533
72787	6.2800E-06	118.528
73120	6.0200E-06	117.278
73455	5.7600E-06	116.182
73790	5.5100E-06	115.002
74125	5.2900E-06	113.572
74462	5.0600E-06	112.176
74799	4.8400E-06	110.959
75137	4.6000E-06	110.275
75476	4.3600E-06	109.775
75815	4.1500E-06	108.872
76155	3.9600E-06	107.65
76496	3.7800E-06	106.384
76838	3.6000E-06	105.069
77180	3.4200E-06	103.927
77523	3.2600E-06	102.694
77867	3.1000E-06	101.315
78211	2.9200E-06	101.013
78556	2.7700E-06	99.816
78902	2.6200E-06	98.982
79249	2.5000E-06	97.278
79596	2.3500E-06	96.586
79944	2.1900E-06	96.936
80293	2.0800E-06	95.512
80642	1.9600E-06	94.818
80992	1.8000E-06	95.3
81343	1.6700E-06	96.982
81695	1.5600E-06	97.313
82047	1.5000E-06	97.2
82400	1.3600E-06	97.101
82753	1.2900E-06	96.121
83108	1.2200E-06	94.943
83463	1.1600E-06	93.201
83819	1.0600E-06	95.093
84175	1.0100E-06	92.981
84532	9.4000E-07	92.79
84890	8.7000E-07	92.736
85249	7.9000E-07	95.981
85608	6.6000E-07	108.043
85968	6.2000E-07	107.216
86329	5.0000E-07	116.475
86690	4.8000E-07	124.376
87052	4.4000E-07	128.12
87415	4.1000E-07	131.011
87778	3.8000E-07	133.326
88142	3.6000E-07	133.518
88507	3.4000E-07	133.257
88873	3.3000E-07	132.635
89239	3.1000E-07	131.843
89606	3.0000E-07	131.077
89974	2.9000E-07	130.505
90342	2.7000E-07	130.381
90711	2.6000E-07	130.919
91081	2.4000E-07	131.906
91451	2.3000E-07	132.742
91822	2.2000E-07	133.196
92194	2.1000E-07	132.735
92567	2.0000E-07	130.369
92940	1.9000E-07	127.415
93314	1.8000E-07	127.187
93688	1.7000E-07	127.762
94063	1.6500E-07	127.068
94439	1.6000E-07	126.145
94816	1.5000E-07	125.568
95193	1.4000E-07	125.223
95571	1.3000E-07	125.53
95950	1.3000E-07	126.226
96329	1.2000E-07	126.76
96710	1.1000E-07	127.285
97090	1.1000E-07	127.637
97472	1.0000E-07	127.373
97854	9.0000E-08	127.244
98237	9.0000E-08	127.555
98620	8.0000E-08	127.721
99005	8.0000E-08	127.225
99390	7.5000E-08	126.159
99775	7.0000E-08	125.492
100161	6.8496E-08	125.983
100548	6.4403E-08	126.661
100936	6.0726E-08	127.002
101324	5.7294E-08	127.27
101713	5.4371E-08	126.786
102103	5.2138E-08	124.917
102494	4.9823E-08	123.397
102885	4.6771E-08	124.047
103276	4.3503E-08	125.916
103669	4.0715E-08	127.1
104062	3.8406E-08	127.322
104456	3.6304E-08	127.27
104850	3.4415E-08	126.829
105246	3.2574E-08	126.552
105641	3.0894E-08	125.987
106038	2.9361E-08	125.113
106435	2.7374E-08	126.662
106833	2.5813E-08	126.819
107232	2.4264E-08	127.387
107631	2.2458E-08	130.032
108031	2.0752E-08	133.107
108432	1.9591E-08	133.45
108833	1.8596E-08	133.058
109235	1.7920E-08	130.587
109638	1.7248E-08	128.176
110041	1.6546E-08	126.084
110445	1.5680E-08	125.465
110850	1.4727E-08	125.955
111255	1.3908E-08	125.752
111661	1.3177E-08	125.117
112068	1.2648E-08	122.776
112476	1.2123E-08	120.502
112884	1.1396E-08	120.51
113293	1.0718E-08	120.444
113702	1.0256E-08	118.231
114112	9.7482E-09	116.729
114523	9.2183E-09	115.742
114935	8.7665E-09	114.022
115347	8.3505E-09	112.015
115760	7.9183E-09	110.413
116173	7.5405E-09	108.236
116587	7.0953E-09	107.261
117002	6.5793E-09	107.838
117418	6.1342E-09	107.839
117834	5.7546E-09	107.146
118251	5.3485E-09	107.426
118669	4.9332E-09	108.573
119087	4.5518E-09	109.768
119506	4.2098E-09	110.783
119926	3.9071E-09	111.422
120346	3.6279E-09	112.022
120767	3.3792E-09	112.297
121188	3.1730E-09	111.649
121611	2.9698E-09	111.323
122034	2.7734E-09	111.229
122457	2.5987E-09	110.732
122882	2.4318E-09	110.347
123307	2.2678E-09	110.32
123732	2.1163E-09	110.213
124159	1.9670E-09	110.549
124586	1.8226E-09	111.21
125014	1.6897E-09	111.842
125442	1.5611E-09	112.924
125871	1.4362E-09	114.581
126301	1.3245E-09	116.09
126731	1.2176E-09	118.106
127162	1.1217E-09	120.027
127594	1.0428E-09	120.965
128026	9.6866E-10	122.096
128459	9.0324E-10	122.878
128893	8.4492E-10	123.317
129327	7.7913E-10	125.636
129762	7.2140E-10	127.618
130198	6.8630E-10	126.192
130634	6.4403E-10	126.47
131072	5.8094E-10	132.042
131509	5.2655E-10	137.545
131948	4.7722E-10	143.601
132387	4.3950E-10	147.822
132826	4.1207E-10	149.633
133267	3.8732E-10	151.176
133708	3.6646E-10	151.792
134150	3.4590E-10	152.811
134592	3.2915E-10	152.623
135035	3.1493E-10	151.569
135479	3.0660E-10	147.815
135923	2.9452E-10	145.943
136368	2.7604E-10	147.665
136814	2.6340E-10	146.773
137260	2.5115E-10	145.948
137707	2.3915E-10	145.288
138155	2.2822E-10	144.271
138603	2.1623E-10	144.263
139052	2.0470E-10	144.384
139502	1.9476E-10	143.772
139952	1.8507E-10	143.35
140403	1.7596E-10	142.863
140855	1.6720E-10	142.449
